{
  "cFlag": "-Wall -DPOLYBENCH_TIME -DVERIBENCH -DMAX_MEASURES=$(MAX_MEASURES) -D_POSIX_C_SOURCE=200112L",
  "archAS":"clang -c",
  "archCC":"clang ",
  "maxMeasures":"99",
  "benchesComp": [
    {
      "cc": "gcc",
      "cFlag": "-std=gnu99 -Wextra -ffp-contract=off",
      "prefix": "gcc",
      "options": [
        {
          "cFlag": "-O2",
          "prefix": "O2"
        },
        {
          "cFlag": "-O3",
          "prefix": "O3"
        }
      ]
    },
    {
      "cc": "ccomp",
      "cFlag": "-fall",
      "prefix": "ccomp",
      "options": [
        {
          "cFlag": "-DARCH_aarch64 ",
          "cFlagCOMMENT": "-DARCH_aarch64 -fno-postpass -fno-prepass -fno-cse -fno-cse2 -fno-cse3",
          "prefix": "nothing"
        }
      ]
    },
    {
      "cc": "clang",
      "cFlag": "-std=gnu99 -Wextra -ffp-contract=off  -fno-integrated-as",
      "prefix": "clang",
      "options": [
        {
          "cFlag": "-O2",
          "prefix": "O2"
        },
        {
          "cFlag": "-O3",
          "prefix": "O3"
        }
      ]
    }      
  ]
}
