{
  "runCMD":"taskset -c 0",
  "maxMeasures":"11",
  "cFlag": "-Wall -DPOLYBENCH_TIME -DVERIBENCH -DMAX_MEASURES=$(MAX_MEASURES) -D_POSIX_C_SOURCE=200112L -DSMALL_DATASET",
  "archAS":"riscv64-linux-gnu-as",
  "archCC":"riscv64-linux-gnu-gcc",
  "benchesComp": [
    {
      "cc": "riscv64-linux-gnu-gcc",
      "cFlag": "-std=gnu99 -Wextra -ffp-contract=off -march=rv64imafdc",
      "##": "we can also use -mcpu=sifive-u74 and -mtune=sifive-7-series",
      "prefix": "gcc",
      "options": [
        {
          "cFlag": "-O1",
          "prefix": "O1"
        },
        {
          "cFlag": "-O2",
          "prefix": "O2"
        },
        {
          "cFlag": "-O3",
          "prefix": "O3"
        }
      ]
    },
    {
      "cc": "ccomp",
      "cFlag": "-fall -mtune FU74",
      "prefix": "ccomp",
      "options": [
        {
          "cFlag": "",
          "prefix": "regpres"
        },
        {
          "cFlag": "-funrollsingle 500",
          "prefix": "regpres+unrs"
        },
        {
          "cFlag": "-funrollsingle 500 -flct",
          "prefix": "regpres+unrs+lct"
        },
        {
          "cFlag": "-funrollsingle 500 -flct -flct-trap",
          "prefix": "regpres+unrs+lct+lct-trap"
        },
        {
          "cFlag": "-funrollsingle 500 -flct -flct-trap -flct-sr",
          "prefix": "regpres+unrs+lct+lct-trap+lct-sr"
        },
        {
          "cFlag": "-funrollsingle 500 -flct -flct-trap -flct-sr -fforward-moves",
          "prefix": "regpres+unrs+lct+lct-trap+lct-sr+fwdmv"
        },
        {
          "cFlag": "-funrollsingle 500 -flct -flct-trap -flct-sr -fforward-moves -flct-tun",
          "prefix": "regpres+unrs+lct+lct-trap+lct-sr+fwdmv+tun"
        },
        {
          "cFlag": "-fno-prepass -funrollsingle 500 -flct",
          "prefix": "noprep+unrs+lct"
        },
        {
          "cFlag": "-fno-prepass -funrollsingle 500 -flct -flct-trap",
          "prefix": "noprep+unrs+lct+lct-trap"
        },
        {
          "cFlag": "-fno-prepass -funrollsingle 500 -flct -flct-trap -flct-sr",
          "prefix": "noprep+unrs+lct+lct-trap+lct-sr"
        },
        {
          "cFlag": "-fno-prepass -funrollsingle 500 -flct -flct-trap -flct-sr -fforward-moves",
          "prefix": "noprep+unrs+lct+lct-trap+lct-sr+fwdmv"
        },
        {
          "cFlag": "-fno-prepass -funrollsingle 500 -flct -flct-trap -flct-sr -fforward-moves -flct-tun",
          "prefix": "noprep+unrs+lct+lct-trap+lct-sr+fwdmv+tun"
        },
        {
          "cFlag": "-fprepass= list -funrollsingle 500 -flct",
          "prefix": "list+unrs+lct"
        },
        {
          "cFlag": "-fprepass= list -funrollsingle 500 -flct -flct-trap",
          "prefix": "list+unrs+lct+lct-trap"
        },
        {
          "cFlag": "-fprepass= list -funrollsingle 500 -flct -flct-trap -flct-sr",
          "prefix": "list+unrs+lct+lct-trap+lct-sr"
        },
        {
          "cFlag": "-fprepass= list -funrollsingle 500 -flct -flct-trap -flct-sr -fforward-moves",
          "prefix": "list+unrs+lct+lct-trap+lct-sr+fwdmv"
        },
        {
          "cFlag": "-fprepass= list -funrollsingle 500 -flct -flct-trap -flct-sr -fforward-moves -flct-tun",
          "prefix": "list+unrs+lct+lct-trap+lct-sr+fwdmv+tun"
        }
      ]
    }
  ]
}
